<svg
    xmlns="http://www.w3.org/2000/svg"
    width="24"
    height="24"
    viewBox="0 0 24 24"
    class="feather feather-smile"
>
    <circle cx="12" cy="12" r="10"></circle>
    <path d="M8 14s1.5 2 4 2 4-2 4-2"></path>
    <line
        x1="9"
        y1="9"
        x2="9.01"
        y2="9"
    ></line>
    <line
        x1="15"
        y1="9"
        x2="15.01"
        y2="9"
    ></line>
</svg>